EESchema Schematic File Version 4
EELAYER 30 0
EELAYER END
$Descr C 22000 17000
encoding utf-8
Sheet 1 1
Title ""
Date ""
Rev ""
Comp ""
Comment1 ""
Comment2 ""
Comment3 ""
Comment4 ""
$EndDescr
$Comp
L Interface_UART:MAX485E U?
U 1 1 608A8E93
P 1600 1800
F 0 "U?" H 1400 2250 50  0000 C CNN
F 1 "MAX485E" H 1800 2250 50  0000 C CNN
F 2 "" H 1600 1100 50  0001 C CNN
F 3 "https://datasheets.maximintegrated.com/en/ds/MAX1487E-MAX491E.pdf" H 1600 1850 50  0001 C CNN
	1    1600 1800
	1    0    0    -1  
$EndComp
$Comp
L power:VCC #PWR?
U 1 1 608AABF2
P 1600 1300
F 0 "#PWR?" H 1600 1150 50  0001 C CNN
F 1 "VCC" H 1615 1473 50  0000 C CNN
F 2 "" H 1600 1300 50  0001 C CNN
F 3 "" H 1600 1300 50  0001 C CNN
	1    1600 1300
	1    0    0    -1  
$EndComp
$Comp
L power:GND #PWR?
U 1 1 608AB918
P 1600 2400
F 0 "#PWR?" H 1600 2150 50  0001 C CNN
F 1 "GND" H 1605 2227 50  0000 C CNN
F 2 "" H 1600 2400 50  0001 C CNN
F 3 "" H 1600 2400 50  0001 C CNN
	1    1600 2400
	1    0    0    -1  
$EndComp
Text Notes 1150 950  0    94   ~ 0
NPK MAX485
$Comp
L Interface_UART:MAX485E U?
U 1 1 608AE63D
P 1550 4000
F 0 "U?" H 1350 4450 50  0000 C CNN
F 1 "MAX485E" H 1750 4450 50  0000 C CNN
F 2 "" H 1550 3300 50  0001 C CNN
F 3 "https://datasheets.maximintegrated.com/en/ds/MAX1487E-MAX491E.pdf" H 1550 4050 50  0001 C CNN
	1    1550 4000
	1    0    0    -1  
$EndComp
$Comp
L power:VCC #PWR?
U 1 1 608AE647
P 1550 3500
F 0 "#PWR?" H 1550 3350 50  0001 C CNN
F 1 "VCC" H 1565 3673 50  0000 C CNN
F 2 "" H 1550 3500 50  0001 C CNN
F 3 "" H 1550 3500 50  0001 C CNN
	1    1550 3500
	1    0    0    -1  
$EndComp
$Comp
L power:GND #PWR?
U 1 1 608AE64D
P 1550 4600
F 0 "#PWR?" H 1550 4350 50  0001 C CNN
F 1 "GND" H 1555 4427 50  0000 C CNN
F 2 "" H 1550 4600 50  0001 C CNN
F 3 "" H 1550 4600 50  0001 C CNN
	1    1550 4600
	1    0    0    -1  
$EndComp
$Comp
L Interface_UART:MAX485E U?
U 1 1 608B0921
P 1550 6000
F 0 "U?" H 1350 6450 50  0000 C CNN
F 1 "MAX485E" H 1750 6450 50  0000 C CNN
F 2 "" H 1550 5300 50  0001 C CNN
F 3 "https://datasheets.maximintegrated.com/en/ds/MAX1487E-MAX491E.pdf" H 1550 6050 50  0001 C CNN
	1    1550 6000
	1    0    0    -1  
$EndComp
$Comp
L power:VCC #PWR?
U 1 1 608B092B
P 1550 5500
F 0 "#PWR?" H 1550 5350 50  0001 C CNN
F 1 "VCC" H 1565 5673 50  0000 C CNN
F 2 "" H 1550 5500 50  0001 C CNN
F 3 "" H 1550 5500 50  0001 C CNN
	1    1550 5500
	1    0    0    -1  
$EndComp
$Comp
L power:GND #PWR?
U 1 1 608B0931
P 1550 6600
F 0 "#PWR?" H 1550 6350 50  0001 C CNN
F 1 "GND" H 1555 6427 50  0000 C CNN
F 2 "" H 1550 6600 50  0001 C CNN
F 3 "" H 1550 6600 50  0001 C CNN
	1    1550 6600
	1    0    0    -1  
$EndComp
$Comp
L MCU_Microchip_ATmega:ATmega2560-16AU U?
U 1 1 608B5605
P 19275 4550
F 0 "U?" H 18925 1700 50  0000 C CNN
F 1 "ATmega2560-16AU" H 19725 1700 50  0000 C CNN
F 2 "Package_QFP:TQFP-100_14x14mm_P0.5mm" H 19275 4550 50  0001 C CIN
F 3 "http://ww1.microchip.com/downloads/en/DeviceDoc/Atmel-2549-8-bit-AVR-Microcontroller-ATmega640-1280-1281-2560-2561_datasheet.pdf" H 19275 4550 50  0001 C CNN
	1    19275 4550
	1    0    0    -1  
$EndComp
Text Notes 1150 3150 0    94   ~ 0
EC MAX485
Text Notes 1100 5200 0    94   ~ 0
PH MAX485
$Comp
L Connector:AVR-ISP-6 J?
U 1 1 608D575A
P 1550 8200
F 0 "J?" H 1221 8296 50  0000 R CNN
F 1 "AVR-ISP-6" H 1221 8205 50  0000 R CNN
F 2 "" V 1300 8250 50  0001 C CNN
F 3 " ~" H 275 7650 50  0001 C CNN
	1    1550 8200
	1    0    0    -1  
$EndComp
$Comp
L power:VCC #PWR?
U 1 1 608D9A48
P 1450 7700
F 0 "#PWR?" H 1450 7550 50  0001 C CNN
F 1 "VCC" H 1465 7873 50  0000 C CNN
F 2 "" H 1450 7700 50  0001 C CNN
F 3 "" H 1450 7700 50  0001 C CNN
	1    1450 7700
	1    0    0    -1  
$EndComp
$Comp
L power:GND #PWR?
U 1 1 608DA110
P 1450 8600
F 0 "#PWR?" H 1450 8350 50  0001 C CNN
F 1 "GND" H 1455 8427 50  0000 C CNN
F 2 "" H 1450 8600 50  0001 C CNN
F 3 "" H 1450 8600 50  0001 C CNN
	1    1450 8600
	1    0    0    -1  
$EndComp
Text Notes 1300 7400 0    94   ~ 0
AVR ISP
$Comp
L power:VCC #PWR?
U 1 1 608EBD4C
P 19325 1500
F 0 "#PWR?" H 19325 1350 50  0001 C CNN
F 1 "VCC" H 19340 1673 50  0000 C CNN
F 2 "" H 19325 1500 50  0001 C CNN
F 3 "" H 19325 1500 50  0001 C CNN
	1    19325 1500
	1    0    0    -1  
$EndComp
$Comp
L power:GND #PWR?
U 1 1 608EC558
P 19275 7450
F 0 "#PWR?" H 19275 7200 50  0001 C CNN
F 1 "GND" H 19280 7277 50  0000 C CNN
F 2 "" H 19275 7450 50  0001 C CNN
F 3 "" H 19275 7450 50  0001 C CNN
	1    19275 7450
	1    0    0    -1  
$EndComp
Wire Wire Line
	19275 1650 19275 1600
Wire Wire Line
	19275 1600 19325 1600
Wire Wire Line
	19375 1600 19375 1650
Wire Wire Line
	19325 1500 19325 1600
Connection ~ 19325 1600
Wire Wire Line
	19325 1600 19375 1600
$Comp
L Device:Crystal_GND2 Y?
U 1 1 608F4B3D
P 17675 2250
F 0 "Y?" V 17629 2380 50  0000 L CNN
F 1 "Crystal_GND2" V 17720 2380 50  0000 L CNN
F 2 "" H 17675 2250 50  0001 C CNN
F 3 "~" H 17675 2250 50  0001 C CNN
	1    17675 2250
	0    1    1    0   
$EndComp
Wire Wire Line
	17675 2100 17675 2050
Wire Wire Line
	17675 2050 18225 2050
Wire Wire Line
	18225 2050 18225 2150
Wire Wire Line
	18225 2150 18475 2150
Wire Wire Line
	17675 2400 17675 2450
Wire Wire Line
	17675 2450 18225 2450
Wire Wire Line
	18225 2450 18225 2350
Wire Wire Line
	18225 2350 18475 2350
$Comp
L power:GND #PWR?
U 1 1 608F7CC7
P 17475 2250
F 0 "#PWR?" H 17475 2000 50  0001 C CNN
F 1 "GND" V 17480 2122 50  0000 R CNN
F 2 "" H 17475 2250 50  0001 C CNN
F 3 "" H 17475 2250 50  0001 C CNN
	1    17475 2250
	0    1    1    0   
$EndComp
$Comp
L Device:R R?
U 1 1 608F86A8
P 17025 2250
F 0 "R?" H 16875 2300 50  0000 L CNN
F 1 "1M" H 16875 2200 50  0000 L CNN
F 2 "" V 16955 2250 50  0001 C CNN
F 3 "~" H 17025 2250 50  0001 C CNN
	1    17025 2250
	1    0    0    -1  
$EndComp
Wire Wire Line
	17025 2400 17025 2450
Wire Wire Line
	17025 2450 17675 2450
Connection ~ 17675 2450
Wire Wire Line
	17025 2100 17025 2050
Wire Wire Line
	17025 2050 17675 2050
Connection ~ 17675 2050
NoConn ~ 18475 2550
Text Notes 18625 1100 0    94   ~ 0
ATMega 2560 MCU
Wire Notes Line
	2500 475  2500 9000
Wire Notes Line
	2500 5000 475  5000
$Comp
L Personal:ORG1518-MK06 U?
U 1 1 6095D6CC
P 1925 10525
F 0 "U?" H 1925 11650 94  0000 C CNN
F 1 "ORG1518-MK06" H 1925 11482 94  0000 C CNN
F 2 "" H 1775 11025 94  0001 C CNN
F 3 "https://origingps.com/wp-content/uploads/2020/09/Multi-Hornet-ORG1518-MK06-ver1.6.pdf" H 1775 11025 94  0001 C CNN
	1    1925 10525
	1    0    0    -1  
$EndComp
$Comp
L power:GND #PWR?
U 1 1 60960B17
P 2575 9775
F 0 "#PWR?" H 2575 9525 50  0001 C CNN
F 1 "GND" V 2580 9647 50  0000 R CNN
F 2 "" H 2575 9775 50  0001 C CNN
F 3 "" H 2575 9775 50  0001 C CNN
	1    2575 9775
	0    -1   -1   0   
$EndComp
$Comp
L power:GND #PWR?
U 1 1 609610B8
P 2575 9925
F 0 "#PWR?" H 2575 9675 50  0001 C CNN
F 1 "GND" V 2580 9797 50  0000 R CNN
F 2 "" H 2575 9925 50  0001 C CNN
F 3 "" H 2575 9925 50  0001 C CNN
	1    2575 9925
	0    -1   -1   0   
$EndComp
$Comp
L power:GND #PWR?
U 1 1 609616FD
P 1275 9775
F 0 "#PWR?" H 1275 9525 50  0001 C CNN
F 1 "GND" V 1280 9647 50  0000 R CNN
F 2 "" H 1275 9775 50  0001 C CNN
F 3 "" H 1275 9775 50  0001 C CNN
	1    1275 9775
	0    1    1    0   
$EndComp
$Comp
L power:GND #PWR?
U 1 1 60961C97
P 1275 10075
F 0 "#PWR?" H 1275 9825 50  0001 C CNN
F 1 "GND" V 1280 9947 50  0000 R CNN
F 2 "" H 1275 10075 50  0001 C CNN
F 3 "" H 1275 10075 50  0001 C CNN
	1    1275 10075
	0    1    1    0   
$EndComp
Wire Wire Line
	775  12425 775  12350
Wire Wire Line
	1225 12350 1225 12425
Text GLabel 20075 5950 2    50   Input ~ 0
NPK_DE
Text GLabel 20075 6050 2    50   Input ~ 0
NPK_RE
Text GLabel 18475 6950 0    50   Input ~ 0
PH_DE
Text GLabel 20075 5850 2    50   Input ~ 0
PH_RE
Text GLabel 18475 5850 0    50   Input ~ 0
EC_DE
Text GLabel 18475 5950 0    50   Input ~ 0
EC_RE
Text GLabel 20075 2950 2    50   Input ~ 0
SCK
Text GLabel 20075 3050 2    50   Input ~ 0
MOSI
Text GLabel 20075 3150 2    50   Input ~ 0
MISO
Text GLabel 20075 3250 2    50   Input ~ 0
EC_DI
Text GLabel 20075 3350 2    50   Input ~ 0
NPK_RO
Text GLabel 20075 3450 2    50   Input ~ 0
PH_RO
Text GLabel 20075 3550 2    50   Input ~ 0
EC_RO
Text GLabel 18475 1950 0    50   Input ~ 0
RST
Text GLabel 18475 6150 0    50   Input ~ 0
PH_DI
Text GLabel 18475 6050 0    50   Input ~ 0
NPK_DI
Text GLabel 1950 8000 2    50   Input ~ 0
MISO
Text GLabel 1950 8100 2    50   Input ~ 0
MOSI
Text GLabel 1950 8200 2    50   Input ~ 0
SCK
Text GLabel 1950 8300 2    50   Input ~ 0
RST
Text GLabel 1150 5900 0    50   Input ~ 0
PH_RO
Text GLabel 1950 5900 2    50   Input ~ 0
PH_B
Text GLabel 1950 6200 2    50   Input ~ 0
PH_A
Text GLabel 1150 6000 0    50   Input ~ 0
PH_RE
Text GLabel 1150 6100 0    50   Input ~ 0
PH_DE
Text GLabel 1150 6200 0    50   Input ~ 0
PH_DI
Text GLabel 1150 3900 0    50   Input ~ 0
EC_RO
Text GLabel 1150 4000 0    50   Input ~ 0
EC_RE
Text GLabel 1150 4100 0    50   Input ~ 0
EC_DE
Text GLabel 1150 4200 0    50   Input ~ 0
EC_DI
Text GLabel 1950 3900 2    50   Input ~ 0
EC_B
Text GLabel 1950 4200 2    50   Input ~ 0
EC_A
Text GLabel 1200 1700 0    50   Input ~ 0
NPK_RO
Text GLabel 2000 1700 2    50   Input ~ 0
NPK_B
Text GLabel 2000 2000 2    50   Input ~ 0
NPK_A
Text GLabel 1200 1800 0    50   Input ~ 0
NPK_RE
Text GLabel 1200 1900 0    50   Input ~ 0
NPK_DE
Text GLabel 1200 2000 0    50   Input ~ 0
NPK_DI
$Comp
L power:GND #PWR?
U 1 1 60966001
P 1225 12725
F 0 "#PWR?" H 1225 12475 50  0001 C CNN
F 1 "GND" H 1230 12552 50  0000 C CNN
F 2 "" H 1225 12725 50  0001 C CNN
F 3 "" H 1225 12725 50  0001 C CNN
	1    1225 12725
	1    0    0    -1  
$EndComp
$Comp
L power:GND #PWR?
U 1 1 60965B70
P 775 12725
F 0 "#PWR?" H 775 12475 50  0001 C CNN
F 1 "GND" H 780 12552 50  0000 C CNN
F 2 "" H 775 12725 50  0001 C CNN
F 3 "" H 775 12725 50  0001 C CNN
	1    775  12725
	1    0    0    -1  
$EndComp
$Comp
L Device:C C?
U 1 1 60962C7E
P 1225 12575
F 0 "C?" H 1340 12621 50  0000 L CNN
F 1 "100pF" H 1340 12530 50  0000 L CNN
F 2 "" H 1263 12425 50  0001 C CNN
F 3 "~" H 1225 12575 50  0001 C CNN
	1    1225 12575
	1    0    0    -1  
$EndComp
$Comp
L Device:C C?
U 1 1 609627E1
P 775 12575
F 0 "C?" H 890 12621 50  0000 L CNN
F 1 "4.7uF" H 890 12530 50  0000 L CNN
F 2 "" H 813 12425 50  0001 C CNN
F 3 "~" H 775 12575 50  0001 C CNN
	1    775  12575
	1    0    0    -1  
$EndComp
$Comp
L Device:C C?
U 1 1 60A11729
P 2100 13750
F 0 "C?" H 2215 13796 50  0000 L CNN
F 1 "4.7uF" H 2215 13705 50  0000 L CNN
F 2 "" H 2138 13600 50  0001 C CNN
F 3 "~" H 2100 13750 50  0001 C CNN
	1    2100 13750
	1    0    0    -1  
$EndComp
$Comp
L Device:C C?
U 1 1 60A11B4E
P 1625 13750
F 0 "C?" H 1740 13796 50  0000 L CNN
F 1 "100pF" H 1740 13705 50  0000 L CNN
F 2 "" H 1663 13600 50  0001 C CNN
F 3 "~" H 1625 13750 50  0001 C CNN
	1    1625 13750
	1    0    0    -1  
$EndComp
Wire Wire Line
	1625 13600 1625 13450
Wire Wire Line
	2100 13450 2100 13600
$Comp
L power:GND #PWR?
U 1 1 60A141EF
P 1625 13900
F 0 "#PWR?" H 1625 13650 50  0001 C CNN
F 1 "GND" H 1630 13727 50  0000 C CNN
F 2 "" H 1625 13900 50  0001 C CNN
F 3 "" H 1625 13900 50  0001 C CNN
	1    1625 13900
	1    0    0    -1  
$EndComp
$Comp
L power:GND #PWR?
U 1 1 60A1462B
P 2100 13900
F 0 "#PWR?" H 2100 13650 50  0001 C CNN
F 1 "GND" H 2105 13727 50  0000 C CNN
F 2 "" H 2100 13900 50  0001 C CNN
F 3 "" H 2100 13900 50  0001 C CNN
	1    2100 13900
	1    0    0    -1  
$EndComp
$Comp
L power:+BATT #PWR?
U 1 1 60A15E16
P 2575 10975
F 0 "#PWR?" H 2575 10825 50  0001 C CNN
F 1 "+BATT" V 2590 11103 50  0000 L CNN
F 2 "" H 2575 10975 50  0001 C CNN
F 3 "" H 2575 10975 50  0001 C CNN
	1    2575 10975
	0    1    1    0   
$EndComp
$Comp
L power:GND #PWR?
U 1 1 60A1693C
P 2575 10375
F 0 "#PWR?" H 2575 10125 50  0001 C CNN
F 1 "GND" V 2580 10247 50  0000 R CNN
F 2 "" H 2575 10375 50  0001 C CNN
F 3 "" H 2575 10375 50  0001 C CNN
	1    2575 10375
	0    -1   -1   0   
$EndComp
NoConn ~ 2575 10525
NoConn ~ 2575 10825
NoConn ~ 2575 10675
NoConn ~ 2575 10075
NoConn ~ 1275 10675
NoConn ~ 1275 10825
NoConn ~ 1275 9925
$Comp
L Device:LED D?
U 1 1 609D76EE
P 1125 11275
F 0 "D?" H 1118 11492 50  0000 C CNN
F 1 "LED" H 1118 11401 50  0000 C CNN
F 2 "" H 1125 11275 50  0001 C CNN
F 3 "~" H 1125 11275 50  0001 C CNN
	1    1125 11275
	1    0    0    -1  
$EndComp
$Comp
L power:GND #PWR?
U 1 1 609DB01A
P 975 11275
F 0 "#PWR?" H 975 11025 50  0001 C CNN
F 1 "GND" H 980 11102 50  0000 C CNN
F 2 "" H 975 11275 50  0001 C CNN
F 3 "" H 975 11275 50  0001 C CNN
	1    975  11275
	0    1    1    0   
$EndComp
NoConn ~ 1275 10225
$Comp
L power:GND #PWR?
U 1 1 609DC14D
P 1275 10375
F 0 "#PWR?" H 1275 10125 50  0001 C CNN
F 1 "GND" H 1280 10202 50  0000 C CNN
F 2 "" H 1275 10375 50  0001 C CNN
F 3 "" H 1275 10375 50  0001 C CNN
	1    1275 10375
	0    1    1    0   
$EndComp
NoConn ~ 1275 11125
NoConn ~ 1275 10975
$Comp
L power:GND #PWR?
U 1 1 609E8E7F
P 1275 10525
F 0 "#PWR?" H 1275 10275 50  0001 C CNN
F 1 "GND" H 1280 10352 50  0000 C CNN
F 2 "" H 1275 10525 50  0001 C CNN
F 3 "" H 1275 10525 50  0001 C CNN
	1    1275 10525
	0    1    1    0   
$EndComp
Text Notes 2250 9250 0    94   ~ 0
ORG1518 GPS 
Text GLabel 20075 7050 2    50   Input ~ 0
GPS_TX
$Comp
L power:+3.3V #PWR?
U 1 1 60A60F03
P 2575 10225
F 0 "#PWR?" H 2575 10075 50  0001 C CNN
F 1 "+3.3V" V 2590 10353 50  0000 L CNN
F 2 "" H 2575 10225 50  0001 C CNN
F 3 "" H 2575 10225 50  0001 C CNN
	1    2575 10225
	0    1    1    0   
$EndComp
$Comp
L Device:Battery_Cell BT?
U 1 1 60A61D32
P 950 13800
F 0 "BT?" H 1068 13896 50  0000 L CNN
F 1 "Battery_Cell" H 1068 13805 50  0000 L CNN
F 2 "" V 950 13860 50  0001 C CNN
F 3 "~" V 950 13860 50  0001 C CNN
	1    950  13800
	1    0    0    -1  
$EndComp
Wire Wire Line
	1625 13450 2100 13450
$Comp
L power:GND #PWR?
U 1 1 60A842AC
P 950 13900
F 0 "#PWR?" H 950 13650 50  0001 C CNN
F 1 "GND" H 955 13727 50  0000 C CNN
F 2 "" H 950 13900 50  0001 C CNN
F 3 "" H 950 13900 50  0001 C CNN
	1    950  13900
	1    0    0    -1  
$EndComp
Wire Wire Line
	950  13600 950  13450
Wire Wire Line
	950  13450 1525 13450
Connection ~ 1625 13450
$Comp
L dk_Logic-Translators-Level-Shifters:TXB0104PWR U?
U 1 1 60AA091D
P 3650 10400
F 0 "U?" H 3975 11075 60  0000 C CNN
F 1 "TXB0104PWR" H 4000 10900 60  0000 C CNN
F 2 "digikey-footprints:TSSOP-14_W4.4mm" H 3850 10600 60  0001 L CNN
F 3 "http://www.ti.com/lit/ds/symlink/txb0104.pdf" H 3850 10700 60  0001 L CNN
F 4 "296-21929-1-ND" H 3850 10800 60  0001 L CNN "Digi-Key_PN"
F 5 "TXB0104PWR" H 3850 10900 60  0001 L CNN "MPN"
F 6 "Integrated Circuits (ICs)" H 3850 11000 60  0001 L CNN "Category"
F 7 "Logic - Translators, Level Shifters" H 3850 11100 60  0001 L CNN "Family"
F 8 "http://www.ti.com/lit/ds/symlink/txb0104.pdf" H 3850 11200 60  0001 L CNN "DK_Datasheet_Link"
F 9 "/product-detail/en/texas-instruments/TXB0104PWR/296-21929-1-ND/1629282" H 3850 11300 60  0001 L CNN "DK_Detail_Page"
F 10 "IC VOLT-LEVEL TRANSLATOR 14TSSOP" H 3850 11400 60  0001 L CNN "Description"
F 11 "Texas Instruments" H 3850 11500 60  0001 L CNN "Manufacturer"
F 12 "Active" H 3850 11600 60  0001 L CNN "Status"
	1    3650 10400
	1    0    0    -1  
$EndComp
$Comp
L power:GND #PWR?
U 1 1 60AA7A82
P 3550 11000
F 0 "#PWR?" H 3550 10750 50  0001 C CNN
F 1 "GND" H 3555 10827 50  0000 C CNN
F 2 "" H 3550 11000 50  0001 C CNN
F 3 "" H 3550 11000 50  0001 C CNN
	1    3550 11000
	1    0    0    -1  
$EndComp
$Comp
L power:+3.3V #PWR?
U 1 1 60AA8A2E
P 3550 9900
F 0 "#PWR?" H 3550 9750 50  0001 C CNN
F 1 "+3.3V" V 3565 10073 50  0000 C CNN
F 2 "" H 3550 9900 50  0001 C CNN
F 3 "" H 3550 9900 50  0001 C CNN
	1    3550 9900
	1    0    0    -1  
$EndComp
$Comp
L power:VCC #PWR?
U 1 1 60AAC515
P 3650 9900
F 0 "#PWR?" H 3650 9750 50  0001 C CNN
F 1 "VCC" V 3665 10073 50  0000 C CNN
F 2 "" H 3650 9900 50  0001 C CNN
F 3 "" H 3650 9900 50  0001 C CNN
	1    3650 9900
	1    0    0    -1  
$EndComp
Wire Wire Line
	775  12350 1000 12350
$Comp
L power:+3.3V #PWR?
U 1 1 60AEEFD2
P 1000 12175
F 0 "#PWR?" H 1000 12025 50  0001 C CNN
F 1 "+3.3V" H 1015 12348 50  0000 C CNN
F 2 "" H 1000 12175 50  0001 C CNN
F 3 "" H 1000 12175 50  0001 C CNN
	1    1000 12175
	1    0    0    -1  
$EndComp
Wire Wire Line
	1000 12175 1000 12350
Connection ~ 1000 12350
Wire Wire Line
	1000 12350 1225 12350
$Comp
L Device:C C?
U 1 1 60AF4F2A
P 1800 12575
F 0 "C?" H 1915 12621 50  0000 L CNN
F 1 "100pF" H 1915 12530 50  0000 L CNN
F 2 "" H 1838 12425 50  0001 C CNN
F 3 "~" H 1800 12575 50  0001 C CNN
	1    1800 12575
	1    0    0    -1  
$EndComp
$Comp
L power:VCC #PWR?
U 1 1 60AF59CB
P 2050 12175
F 0 "#PWR?" H 2050 12025 50  0001 C CNN
F 1 "VCC" H 2065 12348 50  0000 C CNN
F 2 "" H 2050 12175 50  0001 C CNN
F 3 "" H 2050 12175 50  0001 C CNN
	1    2050 12175
	1    0    0    -1  
$EndComp
$Comp
L power:GND #PWR?
U 1 1 60AF61E4
P 1800 12725
F 0 "#PWR?" H 1800 12475 50  0001 C CNN
F 1 "GND" H 1805 12552 50  0000 C CNN
F 2 "" H 1800 12725 50  0001 C CNN
F 3 "" H 1800 12725 50  0001 C CNN
	1    1800 12725
	1    0    0    -1  
$EndComp
$Comp
L Device:C C?
U 1 1 60AFF882
P 2275 12575
F 0 "C?" H 2390 12621 50  0000 L CNN
F 1 "4.7uF" H 2390 12530 50  0000 L CNN
F 2 "" H 2313 12425 50  0001 C CNN
F 3 "~" H 2275 12575 50  0001 C CNN
	1    2275 12575
	1    0    0    -1  
$EndComp
$Comp
L power:GND #PWR?
U 1 1 60AFFEDF
P 2275 12725
F 0 "#PWR?" H 2275 12475 50  0001 C CNN
F 1 "GND" H 2280 12552 50  0000 C CNN
F 2 "" H 2275 12725 50  0001 C CNN
F 3 "" H 2275 12725 50  0001 C CNN
	1    2275 12725
	1    0    0    -1  
$EndComp
Wire Wire Line
	1800 12425 1800 12350
Wire Wire Line
	1800 12350 2050 12350
Wire Wire Line
	2275 12350 2275 12425
Wire Wire Line
	2050 12175 2050 12350
Connection ~ 2050 12350
Wire Wire Line
	2050 12350 2275 12350
Text Notes 975  11725 0    94   ~ 0
Bypass Capacitor
$Comp
L power:+BATT #PWR?
U 1 1 60B3694C
P 1525 13250
F 0 "#PWR?" H 1525 13100 50  0001 C CNN
F 1 "+BATT" V 1540 13378 50  0000 L CNN
F 2 "" H 1525 13250 50  0001 C CNN
F 3 "" H 1525 13250 50  0001 C CNN
	1    1525 13250
	1    0    0    -1  
$EndComp
Wire Wire Line
	1525 13250 1525 13450
Connection ~ 1525 13450
Wire Wire Line
	1525 13450 1625 13450
$Comp
L Device:R R?
U 1 1 60B5EAD4
P 4375 10975
F 0 "R?" H 4445 11021 50  0000 L CNN
F 1 "10K" H 4125 10950 50  0000 L CNN
F 2 "" V 4305 10975 50  0001 C CNN
F 3 "~" H 4375 10975 50  0001 C CNN
	1    4375 10975
	-1   0    0    1   
$EndComp
Wire Wire Line
	3950 10700 4375 10700
Wire Wire Line
	4375 10700 4375 10825
$Comp
L power:GND #PWR?
U 1 1 60B63288
P 4375 11125
F 0 "#PWR?" H 4375 10875 50  0001 C CNN
F 1 "GND" H 4380 10952 50  0000 C CNN
F 2 "" H 4375 11125 50  0001 C CNN
F 3 "" H 4375 11125 50  0001 C CNN
	1    4375 11125
	1    0    0    -1  
$EndComp
$Comp
L power:+3.3V #PWR?
U 1 1 60B64542
P 4375 10575
F 0 "#PWR?" H 4375 10425 50  0001 C CNN
F 1 "+3.3V" V 4390 10748 50  0000 C CNN
F 2 "" H 4375 10575 50  0001 C CNN
F 3 "" H 4375 10575 50  0001 C CNN
	1    4375 10575
	1    0    0    -1  
$EndComp
Wire Wire Line
	4375 10575 4375 10700
Connection ~ 4375 10700
Text GLabel 2575 11275 2    50   Input ~ 0
RXX
Text GLabel 2575 11125 2    50   Input ~ 0
TXX
Text GLabel 3250 10200 0    50   Input ~ 0
RXX
Text GLabel 3250 10300 0    50   Input ~ 0
TXX
Text GLabel 3950 10300 2    50   Input ~ 0
GPS_TX
Text GLabel 3950 10200 2    50   Input ~ 0
GPS_RX
NoConn ~ 3950 10500
NoConn ~ 3950 10400
NoConn ~ 3250 10400
NoConn ~ 3250 10500
Wire Notes Line
	4700 9000 4700 11500
Wire Notes Line
	4700 11500 475  11500
Wire Notes Line
	475  14300 2775 14300
Wire Notes Line
	2775 14300 2775 11500
$Comp
L Personal:LCM-S01602Dxx U?
U 1 1 60C0572B
P 3550 1850
F 0 "U?" H 3550 2625 50  0000 C CNN
F 1 "LCM-S01602Dxx" H 3550 2534 50  0000 C CNN
F 2 "" H 3550 1400 94  0001 C CNN
F 3 "https://www.lumex.com/datasheet/LCM-S01602DSF+A" H 3550 1400 94  0001 C CNN
	1    3550 1850
	1    0    0    -1  
$EndComp
NoConn ~ 3150 1750
NoConn ~ 3150 1850
NoConn ~ 3150 1950
NoConn ~ 3150 2050
$Comp
L power:VCC #PWR?
U 1 1 60C0A02F
P 3950 1300
F 0 "#PWR?" H 3950 1150 50  0001 C CNN
F 1 "VCC" V 3965 1473 50  0000 C CNN
F 2 "" H 3950 1300 50  0001 C CNN
F 3 "" H 3950 1300 50  0001 C CNN
	1    3950 1300
	0    1    1    0   
$EndComp
NoConn ~ 3950 2150
NoConn ~ 3950 2250
$Comp
L power:GND #PWR?
U 1 1 60C0D3BE
P 3950 2450
F 0 "#PWR?" H 3950 2200 50  0001 C CNN
F 1 "GND" H 3955 2277 50  0000 C CNN
F 2 "" H 3950 2450 50  0001 C CNN
F 3 "" H 3950 2450 50  0001 C CNN
	1    3950 2450
	0    -1   -1   0   
$EndComp
Text GLabel 3150 1300 0    50   Input ~ 0
LCD_en
Text GLabel 3150 1400 0    50   Input ~ 0
LCD_rs
Text GLabel 3150 2150 0    50   Input ~ 0
LCD_d4
Text GLabel 3150 2250 0    50   Input ~ 0
LCD_d5
Text GLabel 3150 2350 0    50   Input ~ 0
LCD_d6
Text GLabel 3150 2450 0    50   Input ~ 0
LCD_d7
$Comp
L power:GND #PWR?
U 1 1 60C12849
P 3150 1500
F 0 "#PWR?" H 3150 1250 50  0001 C CNN
F 1 "GND" V 3155 1327 50  0000 C CNN
F 2 "" H 3150 1500 50  0001 C CNN
F 3 "" H 3150 1500 50  0001 C CNN
	1    3150 1500
	0    1    1    0   
$EndComp
$Comp
L Device:R_POT RV?
U 1 1 60C164B1
P 4600 1850
F 0 "RV?" H 4531 1896 50  0000 R CNN
F 1 "R_POT" H 4531 1805 50  0000 R CNN
F 2 "" H 4600 1850 50  0001 C CNN
F 3 "~" H 4600 1850 50  0001 C CNN
	1    4600 1850
	1    0    0    -1  
$EndComp
$Comp
L power:VCC #PWR?
U 1 1 60C17BCB
P 4600 1700
F 0 "#PWR?" H 4600 1550 50  0001 C CNN
F 1 "VCC" H 4615 1873 50  0000 C CNN
F 2 "" H 4600 1700 50  0001 C CNN
F 3 "" H 4600 1700 50  0001 C CNN
	1    4600 1700
	1    0    0    -1  
$EndComp
$Comp
L power:GND #PWR?
U 1 1 60C182F5
P 4600 2000
F 0 "#PWR?" H 4600 1750 50  0001 C CNN
F 1 "GND" H 4605 1827 50  0000 C CNN
F 2 "" H 4600 2000 50  0001 C CNN
F 3 "" H 4600 2000 50  0001 C CNN
	1    4600 2000
	1    0    0    -1  
$EndComp
Text GLabel 4750 1850 2    50   Input ~ 0
LCD_vo
Text GLabel 3950 1400 2    50   Input ~ 0
LCD_vo
Text Notes 3175 900  0    94   ~ 0
LCD display
Wire Notes Line
	475  2925 5250 2925
Text GLabel 20075 4250 2    50   Input ~ 0
LCD_d4
Text GLabel 20075 4150 2    50   Input ~ 0
LCD_d5
Text GLabel 20075 4050 2    50   Input ~ 0
LCD_d6
Text GLabel 20075 3950 2    50   Input ~ 0
LCD_d7
Text GLabel 18475 6550 0    50   Input ~ 0
LCD_en
Text GLabel 20075 5350 2    50   Input ~ 0
LCD_rs
$Comp
L SIM800LMODULE:SIM800LMODULE U?
U 1 1 60C783D9
P 3900 3925
F 0 "U?" H 3900 3925 50  0001 L BNN
F 1 "SIM800LMODULE" H 3900 3925 50  0001 L BNN
F 2 "SIM800LMODULE" H 3900 3925 50  0001 L BNN
F 3 "" H 3900 3925 50  0001 C CNN
	1    3900 3925
	1    0    0    -1  
$EndComp
NoConn ~ 4650 3675
NoConn ~ 4650 3775
NoConn ~ 4650 3875
NoConn ~ 4650 3975
NoConn ~ 4650 4075
NoConn ~ 4650 4175
NoConn ~ 3250 3675
$Comp
L power:+3V8 #PWR?
U 1 1 60C83B30
P 3250 3775
F 0 "#PWR?" H 3250 3625 50  0001 C CNN
F 1 "+3V8" V 3265 3903 50  0000 L CNN
F 2 "" H 3250 3775 50  0001 C CNN
F 3 "" H 3250 3775 50  0001 C CNN
	1    3250 3775
	0    -1   -1   0   
$EndComp
$Comp
L power:GND #PWR?
U 1 1 60C85442
P 3250 4175
F 0 "#PWR?" H 3250 3925 50  0001 C CNN
F 1 "GND" V 3255 4002 50  0000 C CNN
F 2 "" H 3250 4175 50  0001 C CNN
F 3 "" H 3250 4175 50  0001 C CNN
	1    3250 4175
	0    1    1    0   
$EndComp
Text GLabel 3250 4075 0    50   Input ~ 0
GSM_TX
Text GLabel 3250 3975 0    50   Input ~ 0
GSM_RX
Text GLabel 3250 3875 0    50   Input ~ 0
GSM_RST
Text GLabel 20075 4850 2    50   Input ~ 0
GSM_TX
Text GLabel 20075 4950 2    50   Input ~ 0
GSM_RX
Text GLabel 20075 1950 2    50   Input ~ 0
GSM_RST
Text GLabel 20075 7150 2    50   Input ~ 0
GPS_RX
Text Notes 3375 3250 0    94   ~ 0
GSM SIM800L
Wire Notes Line
	5250 4550 2500 4550
$Comp
L Connector:Barrel_Jack_Switch J?
U 1 1 60DFD38E
P 3725 8025
F 0 "J?" H 3782 8342 50  0000 C CNN
F 1 "Barrel_Jack_Switch" H 3782 8251 50  0000 C CNN
F 2 "" H 3775 7985 50  0001 C CNN
F 3 "~" H 3775 7985 50  0001 C CNN
	1    3725 8025
	1    0    0    -1  
$EndComp
$Comp
L power:+12V #PWR?
U 1 1 60DFE1DD
P 4225 7825
F 0 "#PWR?" H 4225 7675 50  0001 C CNN
F 1 "+12V" H 4240 7998 50  0000 C CNN
F 2 "" H 4225 7825 50  0001 C CNN
F 3 "" H 4225 7825 50  0001 C CNN
	1    4225 7825
	1    0    0    -1  
$EndComp
Wire Wire Line
	4225 7825 4225 7925
Wire Wire Line
	4225 7925 4025 7925
$Comp
L power:+12V #PWR?
U 1 1 60E2025A
P 3075 5350
F 0 "#PWR?" H 3075 5200 50  0001 C CNN
F 1 "+12V" H 3090 5523 50  0000 C CNN
F 2 "" H 3075 5350 50  0001 C CNN
F 3 "" H 3075 5350 50  0001 C CNN
	1    3075 5350
	1    0    0    -1  
$EndComp
$Comp
L Device:R R?
U 1 1 60E20DB6
P 3025 5875
F 0 "R?" H 3225 5825 50  0000 R CNN
F 1 "604K" H 3275 5925 50  0000 R CNN
F 2 "" V 2955 5875 50  0001 C CNN
F 3 "~" H 3025 5875 50  0001 C CNN
	1    3025 5875
	-1   0    0    1   
$EndComp
$Comp
L Device:R R?
U 1 1 60E4941F
P 4275 5975
F 0 "R?" H 4450 5925 50  0000 R CNN
F 1 "49K" H 4500 6050 50  0000 R CNN
F 2 "" V 4205 5975 50  0001 C CNN
F 3 "~" H 4275 5975 50  0001 C CNN
	1    4275 5975
	-1   0    0    1   
$EndComp
$Comp
L power:GND #PWR?
U 1 1 60E6EA48
P 4225 8225
F 0 "#PWR?" H 4225 7975 50  0001 C CNN
F 1 "GND" H 4230 8052 50  0000 C CNN
F 2 "" H 4225 8225 50  0001 C CNN
F 3 "" H 4225 8225 50  0001 C CNN
	1    4225 8225
	1    0    0    -1  
$EndComp
$Comp
L power:+3V8 #PWR?
U 1 1 60E8AEE1
P 4700 5425
F 0 "#PWR?" H 4700 5275 50  0001 C CNN
F 1 "+3V8" H 4715 5598 50  0000 C CNN
F 2 "" H 4700 5425 50  0001 C CNN
F 3 "" H 4700 5425 50  0001 C CNN
	1    4700 5425
	1    0    0    -1  
$EndComp
$Comp
L Device:C C?
U 1 1 60E997EB
P 4450 5575
F 0 "C?" H 4565 5621 50  0000 L CNN
F 1 "22uF" H 4565 5530 50  0000 L CNN
F 2 "" H 4488 5425 50  0001 C CNN
F 3 "~" H 4450 5575 50  0001 C CNN
	1    4450 5575
	1    0    0    -1  
$EndComp
$Comp
L power:GND #PWR?
U 1 1 60E9EF7A
P 3025 6025
F 0 "#PWR?" H 3025 5775 50  0001 C CNN
F 1 "GND" H 3030 5852 50  0000 C CNN
F 2 "" H 3025 6025 50  0001 C CNN
F 3 "" H 3025 6025 50  0001 C CNN
	1    3025 6025
	1    0    0    -1  
$EndComp
$Comp
L power:GND #PWR?
U 1 1 60E9F4C6
P 4325 6275
F 0 "#PWR?" H 4325 6025 50  0001 C CNN
F 1 "GND" H 4330 6102 50  0000 C CNN
F 2 "" H 4325 6275 50  0001 C CNN
F 3 "" H 4325 6275 50  0001 C CNN
	1    4325 6275
	1    0    0    -1  
$EndComp
Wire Wire Line
	4025 8025 4225 8025
Wire Wire Line
	4225 8025 4225 8125
Wire Wire Line
	4025 8125 4225 8125
Connection ~ 4225 8125
Wire Wire Line
	4225 8125 4225 8225
$Comp
L Monolithic_Power_Systems:MPM3550E U?
U 1 1 60F0D225
P 3650 5825
F 0 "U?" H 3692 6490 50  0000 C CNN
F 1 "MPM3550E" H 3692 6399 50  0000 C CNN
F 2 "" H 3650 5775 50  0001 C CNN
F 3 "https://www.monolithicpower.com/en/documentview/productdocument/index/version/2/document_type/Datasheet/lang/en/sku/MPM3550EGLE/document_id/5102/" H 3650 5775 50  0001 C CNN
	1    3650 5825
	1    0    0    -1  
$EndComp
Wire Wire Line
	3075 5350 3075 5425
Wire Wire Line
	3075 5425 3200 5425
Wire Wire Line
	4100 6225 4275 6225
Wire Wire Line
	4325 6225 4325 6275
Wire Wire Line
	4275 6125 4275 6225
Connection ~ 4275 6225
Wire Wire Line
	4275 6225 4325 6225
Wire Wire Line
	4100 5825 4275 5825
Connection ~ 4450 5425
Wire Wire Line
	4100 5425 4450 5425
Wire Wire Line
	4450 5425 4700 5425
Wire Wire Line
	4450 5725 4450 6225
Wire Wire Line
	4450 6225 4325 6225
Connection ~ 4325 6225
NoConn ~ 3200 5925
Wire Wire Line
	3200 5725 3025 5725
NoConn ~ 3200 6225
Text Notes 3550 4850 0    94   ~ 0
3.8V Regulator
Wire Notes Line
	475  7000 5250 7000
Text Notes 3350 7275 0    94   ~ 0
12V Input Jack
Wire Notes Line
	475  9000 5250 9000
Wire Notes Line
	5250 475  5250 9000
$EndSCHEMATC
